{
    "count": 10,
    "start": 0,
    "per_page": 10,
    "page": 2,
    "time_ms": 5,
    "total_count": 100000,
    "total_pages": 10000,
    "videos": [
        {
            "id": "IsabYDAiqXa",
            "title": "Youngather",
            "keywords": "Teen, Petite",
            "views": 260221,
            "rate": "4.13",
            "url": "https:\/\/www.rner.com\/hd-kjkhk\/IsabYDAiqXa\/Yoen-Hher\/",
            "added": "2019-11-21 11:42:47",
            "length_sec": 2539,
            "length_min": "42:19",
            "embed": "https:\/\/www.erner.com\/embed\/IsabYDAiqXa\/",
            "default_thumb": {
                "size": "big",
                "width": 640,
                "height": 360,
                "src": "https:\/\/static-ca-cdn.oner.com\/thumbs\/static4\/3\/30\/305\/3054537\/5_360.jpg"
            },
            "thumbs": [
                {
                    "size": "big",
                    "width": 640,
                    "height": 360,
                    "src": "https:\/\/static-ca-cdn.rner.com\/thumbs\/static4\/3\/30\/305\/3054537\/1_360.jpg"
                },
                {
                    "size": "big",
                    "width": 640,
                    "height": 360,
                    "src": "https:\/\/static-ca-cdn.rner.com\/thumbs\/static4\/3\/30\/305\/3054537\/2_360.jpg"
                },
                {
                    "size": "big",
                    "width": 640,
                    "height": 360,
                    "src": "https:\/\/static-ca-cdn.er.com\/thumbs\/static4\/3\/30\/305\/3054537\/3_360.jpg"
                },
                {
                    "size": "big",
                    "width": 640,
                    "height": 360,
                    "src": "https:\/\/static-ca-cdn.ner.com\/thumbs\/static4\/3\/30\/305\/3054537\/4_360.jpg"
                },
                {
                    "size": "big",
                    "width": 640,
                    "height": 360,
                    "src": "https:\/\/static-ca-cdnrner.com\/thumbs\/static4\/3\/30\/305\/3054537\/5_360.jpg"
                },
                {
                    "size": "big",
                    "width": 640,
                    "height": 360,
                    "src": "https:\/\/static-ca-cdn.ner.com\/thumbs\/static4\/3\/30\/305\/3054537\/6_360.jpg"
                },
                {
                    "size": "big",
                    "width": 640,
                    "height": 360,
                    "src": "https:\/\/static-ca-cdn.eer.com\/thumbs\/static4\/3\/30\/305\/3054537\/7_360.jpg"
                },
                {
                    "size": "big",
                    "width": 640,
                    "height": 360,
                    "src": "https:\/\/static-ca-cdn.er.com\/thumbs\/static4\/3\/30\/305\/3054537\/8_360.jpg"
                },
                {
                    "size": "big",
                    "width": 640,
                    "height": 360,
                    "src": "https:\/\/static-ca-cdner.com\/thumbs\/static4\/3\/30\/305\/3054537\/9_360.jpg"
                },
                {
                    "size": "big",
                    "width": 640,
                    "height": 360,
                    "src": "https:\/\/static-ca-cder.com\/thumbs\/static4\/3\/30\/305\/3054537\/10_360.jpg"
                },
                {
                    "size": "big",
                    "width": 640,
                    "height": 360,
                    "src": "https:\/\/static-ca-cdrner.com\/thumbs\/static4\/3\/30\/305\/3054537\/11_360.jpg"
                },
                {
                    "size": "big",
                    "width": 640,
                    "height": 360,
                    "src": "https:\/\/static-ca-cder.com\/thumbs\/static4\/3\/30\/305\/3054537\/12_360.jpg"
                },
                {
                    "size": "big",
                    "width": 640,
                    "height": 360,
                    "src": "https:\/\/static-ca-cder.com\/thumbs\/static4\/3\/30\/305\/3054537\/13_360.jpg"
                },
                {
                    "size": "big",
                    "width": 640,
                    "height": 360,
                    "src": "https:\/\/static-ca-cdner.com\/thumbs\/static4\/3\/30\/305\/3054537\/14_360.jpg"
                },
                {
                    "size": "big",
                    "width": 640,
                    "height": 360,
                    "src": "https:\/\/static-ca-crner.com\/thumbs\/static4\/3\/30\/305\/3054537\/15_360.jpg"
                }
            ]
        },
        {
            "id": "IsabYDAiqXa",
            "title": "Youngather",
            "keywords": "Teen, Petite",
            "views": 260221,
            "rate": "4.13",
            "url": "https:\/\/www.rner.com\/hd-kjkhk\/IsabYDAiqXa\/Yoen-Hher\/",
            "added": "2019-11-21 11:42:47",
            "length_sec": 2539,
            "length_min": "42:19",
            "embed": "https:\/\/www.erner.com\/embed\/IsabYDAiqXa\/",
            "default_thumb": {
                "size": "big",
                "width": 640,
                "height": 360,
                "src": "https:\/\/static-ca-cdn.oner.com\/thumbs\/static4\/3\/30\/305\/3054537\/5_360.jpg"
            },
            "thumbs": [
                {
                    "size": "big",
                    "width": 640,
                    "height": 360,
                    "src": "https:\/\/static-ca-cdn.rner.com\/thumbs\/static4\/3\/30\/305\/3054537\/1_360.jpg"
                },
                {
                    "size": "big",
                    "width": 640,
                    "height": 360,
                    "src": "https:\/\/static-ca-cdn.rner.com\/thumbs\/static4\/3\/30\/305\/3054537\/2_360.jpg"
                },
                {
                    "size": "big",
                    "width": 640,
                    "height": 360,
                    "src": "https:\/\/static-ca-cdn.er.com\/thumbs\/static4\/3\/30\/305\/3054537\/3_360.jpg"
                },
                {
                    "size": "big",
                    "width": 640,
                    "height": 360,
                    "src": "https:\/\/static-ca-cdn.ner.com\/thumbs\/static4\/3\/30\/305\/3054537\/4_360.jpg"
                },
                {
                    "size": "big",
                    "width": 640,
                    "height": 360,
                    "src": "https:\/\/static-ca-cdnrner.com\/thumbs\/static4\/3\/30\/305\/3054537\/5_360.jpg"
                },
                {
                    "size": "big",
                    "width": 640,
                    "height": 360,
                    "src": "https:\/\/static-ca-cdn.ner.com\/thumbs\/static4\/3\/30\/305\/3054537\/6_360.jpg"
                },
                {
                    "size": "big",
                    "width": 640,
                    "height": 360,
                    "src": "https:\/\/static-ca-cdn.eer.com\/thumbs\/static4\/3\/30\/305\/3054537\/7_360.jpg"
                },
                {
                    "size": "big",
                    "width": 640,
                    "height": 360,
                    "src": "https:\/\/static-ca-cdn.er.com\/thumbs\/static4\/3\/30\/305\/3054537\/8_360.jpg"
                },
                {
                    "size": "big",
                    "width": 640,
                    "height": 360,
                    "src": "https:\/\/static-ca-cdner.com\/thumbs\/static4\/3\/30\/305\/3054537\/9_360.jpg"
                },
                {
                    "size": "big",
                    "width": 640,
                    "height": 360,
                    "src": "https:\/\/static-ca-cder.com\/thumbs\/static4\/3\/30\/305\/3054537\/10_360.jpg"
                },
                {
                    "size": "big",
                    "width": 640,
                    "height": 360,
                    "src": "https:\/\/static-ca-cdrner.com\/thumbs\/static4\/3\/30\/305\/3054537\/11_360.jpg"
                },
                {
                    "size": "big",
                    "width": 640,
                    "height": 360,
                    "src": "https:\/\/static-ca-cder.com\/thumbs\/static4\/3\/30\/305\/3054537\/12_360.jpg"
                },
                {
                    "size": "big",
                    "width": 640,
                    "height": 360,
                    "src": "https:\/\/static-ca-cder.com\/thumbs\/static4\/3\/30\/305\/3054537\/13_360.jpg"
                },
                {
                    "size": "big",
                    "width": 640,
                    "height": 360,
                    "src": "https:\/\/static-ca-cdner.com\/thumbs\/static4\/3\/30\/305\/3054537\/14_360.jpg"
                },
                {
                    "size": "big",
                    "width": 640,
                    "height": 360,
                    "src": "https:\/\/static-ca-crner.com\/thumbs\/static4\/3\/30\/305\/3054537\/15_360.jpg"
                }
            ]
        }
    ]
        }